Diet, Labels, and Lifestyle: A NHANES Analysis
…
DMDEDUC2
Categorical-5
Less Than 9th Grade, 9-11th Grade, High School/GED or Equivalent, Some College or AA degree, College Graduate or above: The subjects highest level of education [8 NA]

ALQ151
Categorical- 2
Yes, no: Have you ever had a period in your life where you consumed 4 or 5 drinks almost every day? [1159 NA]

3.2 Analytic Tibble

The following check shows that the NH_data tibble is in a tibble data structure:

NH_data

# A tibble: 7,853 × 7
   SEQN   RIAGENDR DR2TPROT DBQ750           BMXBMI DMDEDUC2              ALQ151
   <chr>  <fct>       <dbl> <fct>             <dbl> <fct>                 <fct> 
 1 109266 Female       62.9 Most of the time   37.8 College Graduate or … No    
 2 109271 Male        140.  Sometimes          29.7 9-11th Grade          Yes   
 3 109273 Male         81.0 Sometimes          21.9 Some College or AA d… No    
 4 109274 Male         47.9 Always             30.2 Some College or AA d… No    
 5 109282 Male         94.7 Sometimes          26.6 College Graduate or … No    
 6 109284 Female      141.  Sometimes          39.1 9-11th Grade          <NA>  
 7 109286 Female      105.  Rarely             28.9 College Graduate or … <NA>  
 8 109290 Female      102.  Most of the time   28.1 College Graduate or … No    
 9 109291 Female       21.8 Sometimes          31.3 College Graduate or … <NA>  
10 109292 Male         NA   <NA>               30.5 High School/GED or E… No    
# ℹ 7,843 more rows
…
